[
    "Firinguetti, L., Rubio, H. Some asymptotic properties of ridge regression in a system of seemingly unrelated regression equations. Communications in Statistics – Theory and Methods 37(15), 2433-2446.",
    "Zapata, J., Yáñez, M., Rudolph, E. Thecamoebians (Protozoa: Rhizopoda) of the peatland from Puyehue National Park (40°45′ S; 72°19′ W), Chile. Gayana 72(1), 9-17."
]