[
    "Contreras-Reyes, J., Idrovo, B. En busca de un modelo benchmark univariado para predecir la tasa de desempleo de Chile. Cuadernos de Economia 30(55), 105-125.",
    "Firinguetti, L., Bobadilla, G. Asymptotic confidence intervals in ridge regression based on the Edgeworth expansion. Statistical Papers 52(2), 287-307.",
    "Huerta Riveros, P.C., Pedraja Rejas, L.M., Contreras Espinoza, S.E., Almodóvar Martínez, P. The quality of life at work and its influence on business results. Revista de Ciencias Sociales 17(4), 658-676."
]