[
    "Contreras-Reyes, J.E., Palma, W. Statistical analysis of autoregressive fractionally integrated moving average models in R. Computational Statistics 28(5), 2309-2331.",
    "Contreras-Reyes, J.E., Arellano-Valle, R.B. Growth estimates of cardinalfish (Epigonus crassicaudus) based on scale mixtures of skew-normal distributions. Fisheries Research 147, 137-144.",
    "Arellano-Valle, R.B., Contreras-Reyes, J.E., Genton, M.G. Shannon Entropy and Mutual Information for Multivariate Skew-Elliptical Distributions. Scandinavian Journal of Statistics 40(1), 42-62.",
    "Contreras-Reyes, J.E. Nonparametric assessment of aftershock clusters of the Maule earthquake Mw=8.8. Journal of Data Science 11 (4), 623-638.",
    "Barra, A.M., Gómez, N.M. Analysis of the Organizational Performance through the Gratton Model. Application to an Undergraduate Career of a Chilean Public University. Formacion Universitaria 6(4), 39-48.",
    "Gantz, A., Valdivia, C.E., Yañez, M., Sade, S. Allochthonous and autochthonous components from gizzard grit of theristicus melanopis in anthropogenic pastures of southern chile. Gayana 77(1), 21-25.",
    "González-Navarrete, M. Propuestas para la enseñanza de las probabilidades: Un ejemplo basado en la educación media chilena. UNIÓN: Revista Iberoamericana de Educación Matemática 36, 145-163"
  ]