[
    "Bevilacqua M., Caamaño-Carrillo C., Gaetan C. On modeling positive continuous data with spatio-temporal dependence. Environmetrics, in press.",
    "Baradit, E., Gatica, C., Yáñez, M., Figueroa, J.C., Guzmán, R., Catalán, C. Surface roughness estimation of wood boards using speckle interferometry. Optics and Lasers in Engineering 128, 106009.",
    "Francisco Novoa-Muñoz, Nelly Gómez-Fuentealba, Florencia Osorio-Baeza. Lotka–Volterra model applied to two sympatric species of Liolaemus in competition. Ecological Modelling.",
    "González-Navarrete, M. Multidimensional walks with random tendency. Journal of Statistical Physics, 181, 1138–1148",
    "Aníbal Coronel, Fernando Huancas, Ian Hess, Esperanza Lozada and Francisco Novoa-Muñoz. Analysis of a SEIR-KS Mathematical Model For Computer Virus Propagation in a Periodic Environment. Mathematics 2020, 8, 76",
    "M. Hernández and F. Novoa. Evaluating Variability of Automatic Process Control of the Moisture Control in Medium Density Fibreboard Line, Using Statistical Process Control. IEEE LATIN AMERICA TRANSACTIONS, VOL. 18, NO. 5, MAY 2020",
    "Wargocki, P., Porras-Salazar, J., Contreras-Espinoza, S., Bahnfleth, W. The relationships between classroom air quality and children’s performance in school. Building and Environment 173, 106749",
    "Nicolis, O., Mateu, J., Contreras-Reyes, J.E. Wavelet-Based Entropy Measures to Characterize Two-Dimensional Fractional Brownian Fields. Entropy 22(2), 196.",
    "Di Giorgi, G., Querales, M., Contreras-Reyes, J.E., Pereira, D., Hernández-Santoro, C. Sampling Procedure for Establishing Criteria for Sea Urchin (Loxechinus albus) Proportion under the Legal Minimum Length of landings. Journal of Marine Science and Engineering 8(2), 102.",
    "Caamaño-Carrillo, C., Contreras-Reyes, J.E., González-Navarrete, M., Sanchez, E. Bivariate superstatistics based on generalized gamma distribution. European Physical Journal B, 93 (3), 43.",
    "Bevilacqua M., Caamaño-Carrillo, C., Arellano-Valle R.B., Morales-Oñate V. Non-Gaussian Geostatistical Modeling using (skew) t Processes. Scandinavian Journal of Statistics, 2020, 1–34.",
    "González, B. A., Agapito, A. M., Novoa-Muñoz, F., Vianna, J., Johnson, W. E., Marín, J.C. Utility of genetic variation in coat color genes to distinguish wild, domestic and hybrid South American camelids for forensic and judicial applications. Forensic Science International: Genetics 45, 102226.",
    "Maleki, M., Wraith, D., Mahmoudi, M.R., Contreras-Reyes, J.E. Asymmetric heavy-tailed vector auto-regressive processes with application to financial data. Journal of Statistical Computation and Simulation 90(2), 324-340.",
    "Canales, T.M., Lima, M., Wiff, R., Contreras-Reyes, J.E., Cifuentes, U., Styles, J.M. Endogenous, climatic and fishing effects influence on the population dynamics of small pelagic in the Southern Humboldt Current Ecosystem. Frontiers in Marine Science 7, 82.",
    "Faouzi, T., Porcu, E., Bevilacqua, M., Kondrashuk, I. Zastavnyi operators and positive definite radial functions. Statistics & Probability Letters, 157, 108620.",
    "Contreras-Reyes, J.E., Kahrari, F., Cortés, D.D. On the modified skew-normal-Cauchy distribution: properties, inference and applications. Communications in Statistics – Theory and Methods, in press."
]