,Algunas empresas donde se están desempeñando los/as Ingenieros Estadísticos UBB
,Anam S.A. Servicios medioambientales
,Arauco productos de papel y forestales Santiago. Las Condes
,Automotriz Sergio Escobar Ltda.
,Banchile Seguros de Vida
,Banco Bice Vida
,Banco Chile
,Banco Itaú
,Banco Ripley
,Banco Santander Chile
,Cable Pacífico S.A.
,Carabineros de Chile
,Cencosud Scotiabank
,Cencosud. S.A
,Chilena Consolidada Seguros Santiago
,CIPA UdeC
,Clases Particulares de Estadística y apoyo alumnos PSU Matemática.
,Codelco El Salvador
,Consorcio S.A.
,Contabilidad
,Coordinador de aérea
,Deloitte Chile
,Depto. de Administración y Personal UBB
,Dirección de Estudios de la Corte Suprema - Poder Judicial
,Dirección General de Análisis Institucional Universidad del Bío-Bío
,El Mercurio S.A.P. Concepción
,Empresa La Polar S.A.
,Entel
,Essbio
,"EY, Santiago"
,Farmacéutica y comercial Biofarma EIRL
,Farmacia Cruz Verde
,Forestal Doña Isidora Ltda.
,FYMIVER - Univeridad Andrés Bello Thno
,Gobernación Provincial de Arauco
,Hospital Claudio vicuña.
,Hospital Comunitario Salud Familiar Quirihue
,"Hospital del Salvador, Providencia Santiago"
,"Hospital Naval de Talcahuano,"
,Hospital Santa Isabel de Lebu
,Hospital Sótero del Río Santiago
,Hotelera MRGR LTDA
,I.N.E. Santiago
,INACAP Universidad Tecnológica de Chile Chillán
,"Incoludido, Inversionistas Sociales"
,Independiente
,INE Chillán 
,Inacap Chillán
,INE Subdepartamento de Censos y Estadísticas Agropecuarias/ Subdirección Técnica.
,INE Sub-departamento de comercio y servicios de la subdirección técnica.
,Instituto Nacional de Estadísticas Los Ríos
,Instituto Profesional AIEP Concepcion
,Instituto Profesional DUOC
,IP Virginio Gómez
,Jaco Diseño Consciente
,JUNJI - Junta Nacional de Jardines Infantiles
,La Polar S.A.
,Liceo La Asunción de Talcahuano
,LICEO PEOPLE HELP PEOPLE PANGUIPULLI
,Management Solutions
,"Mundo Pacífico Telecomunicaciones Concepción, BioBio"
,Nielsen
,Pontifica Universidad Católica de la Santísima Concepcion
,PricewaterhouseCoopers Consultores Auditores SpA
,Proyecto Mapa Arauco
,PwC | Assurance
,Recticenter SpA
,Retail Financiero Scotiabank Cencosud / I.N.E.
,R-Ladies
,SAS Institute Chile.
,Seremi de Salud region del Biobío.
,Servicio de Salud Biobío. Los Ángeles.
,Servicio de Salud de Maule
,Servicio de Salud Metropolitano sur Oriente
,Servicio de Salud Talcanuano
,Servicio Nacional de Turismo
,"SMU S.A. (Unimarc, M10, Ok Market y Telemercados) Santiago"
,Superintendencia de Educación
,Superintendencia de Pensiones
,Tanner Servicios Financieros S.A.
,Transbank S.A.
,Transcom Iberia
,UCSC - Creatividad e Inteligencia. Marketing y publicidad Concepción
,UCSC - Traful Consultores
,Universidad Austral de Chile Valdivia
,Universidad de Chile como
,Universidad de Los Lagos.
,Universidad de Talca
,Universidad del Bío Bío
,Universidad Santo Tomás de Iquique
,VTR Comunicaciones SpA Santiago